D:\GRETA\devops\paul totti\gitlab_docker\cda_devops_projet_java\spring-petclinic-api-gateway\src\main\java\org\springframework\samples\petclinic\api\application\CustomersServiceClient.java
D:\GRETA\devops\paul totti\gitlab_docker\cda_devops_projet_java\spring-petclinic-api-gateway\src\main\java\org\springframework\samples\petclinic\api\application\VisitsServiceClient.java
D:\GRETA\devops\paul totti\gitlab_docker\cda_devops_projet_java\spring-petclinic-api-gateway\src\main\java\org\springframework\samples\petclinic\api\dto\VisitDetails.java
D:\GRETA\devops\paul totti\gitlab_docker\cda_devops_projet_java\spring-petclinic-api-gateway\src\main\java\org\springframework\samples\petclinic\api\ApiGatewayApplication.java
D:\GRETA\devops\paul totti\gitlab_docker\cda_devops_projet_java\spring-petclinic-api-gateway\src\main\java\org\springframework\samples\petclinic\api\boundary\web\ApiGatewayController.java
D:\GRETA\devops\paul totti\gitlab_docker\cda_devops_projet_java\spring-petclinic-api-gateway\src\main\java\org\springframework\samples\petclinic\api\dto\PetDetails.java
D:\GRETA\devops\paul totti\gitlab_docker\cda_devops_projet_java\spring-petclinic-api-gateway\src\main\java\org\springframework\samples\petclinic\api\dto\PetType.java
D:\GRETA\devops\paul totti\gitlab_docker\cda_devops_projet_java\spring-petclinic-api-gateway\src\main\java\org\springframework\samples\petclinic\api\dto\Visits.java
D:\GRETA\devops\paul totti\gitlab_docker\cda_devops_projet_java\spring-petclinic-api-gateway\src\main\java\org\springframework\samples\petclinic\api\dto\OwnerDetails.java
